{
    "name": "Unity.PhantomEngine.Tests.Editor",
    "rootNamespace": "",
    "references": [
        "GUID:382b9336ba943b84a98617b25a7b7177",
        "GUID:2b1f93792904b4c48be183899f1d278c"
    ],
    "includePlatforms": [],
    "excludePlatforms": [],
    "allowUnsafeCode": false,
    "overrideReferences": false,
    "precompiledReferences": [],
    "autoReferenced": true,
    "defineConstraints": [],
    "versionDefines": [],
    "noEngineReferences": false
}